# Command:
#   > ./chroot_setup.sh chroot_OPS_NODE.lst /QOpenSys/root_path
# Note:
#   This file assume prior chroot_minimal.lst (or uncomment below)
#     > ./chroot_setup.sh chroot_minimal.lst /QOpenSys/root_path
#

#
# copy dirs list
# (
#  mkdir -p $CHROOT_DIR/path
#  cp -R  /path/* $CHROOT_DIR/path/.
# )
#
:cp_dir
/QOpenSys/QIBM/ProdData/Node

#
# relative links list
# (
#   ls -l /QOpenSys/usr/bin/c_rehash
#   /QOpenSys/usr/bin/c_rehash -> ../../QIBM/ProdData/SC1/OpenSSL/openssl-0.9.8j/bin/c_rehash
#   cd $CHROOT_DIR/QOpenSys/usr/bin/
#   ln ../../QIBM/ProdData/SC1/OpenSSL/openssl-0.9.8j/bin/c_rehash c_rehash
# )
#
:ln_rel
/QOpenSys/QIBM/ProdData/Node/bin/npm ../lib/node_modules/npm/bin/npm-cli.js


